curl -qs https://www.cloudflare.com/ips-v4 | sed 's/.*/\U&;/' | sed 's/^/allow /' > cf-ips.txt && echo -e "\n" >> cf-ips.txt && curl -qs https://www.cloudflare.com/ips-v6 | sed 's/.*/\U&;/' | sed 's/^/allow /' >> cf-ips.txt && echo -e "\ndeny all;\n" >> cf-ips.txt

cat ./cf-ips.txt
